{
  "dashboard": {
    "id": null,
    "title": "Production Overview",
    "tags": [ "templated" ],
    "timezone": "browser",
    "rows": [
      {
      "title": "Nginx",
      "panels": [
        {
          "id": 1,
          "title": "Nginx Request Overview",
          "error": false,
          "span": 12,
          "editable": true,
          "type": "graph",
          "targets": [
            {
              "refId": "A"
            }
          ],
          "datasource": null,
          "renderer": "flot",
          "yaxes": [
            {
              "label": null,
              "show": true,
              "logBase": 1,
              "min": null,
              "max": null,
              "format": "short"
            },
            {
              "label": null,
              "show": true,
              "logBase": 1,
              "min": null,
              "max": null,
              "format": "short"
            }
          ],
          "xaxis": {
            "show": true,
            "mode": "time",
            "name": null,
            "values": []
          },
          "lines": true,
          "fill": 1,
          "linewidth": 1,
          "points": false,
          "pointradius": 5,
          "bars": false,
          "stack": false,
          "percentage": false,
          "legend": {
            "show": true,
            "values": false,
            "min": false,
            "max": false,
            "current": false,
            "total": false,
            "avg": false
          },
          "nullPointMode": "connected",
          "steppedLine": false,
          "tooltip": {
            "value_type": "individual",
            "shared": true,
            "sort": 0,
            "msResolution": false
          },
          "timeFrom": null,
          "timeShift": null,
          "aliasColors": {},
          "seriesOverrides": [],
          "thresholds": [],
          "links": []
        },
         {
          "id": 2,
          "title": "Nginx Request Stat",
          "error": false,
          "span": 12,
          "editable": true,
          "type": "graph",
          "targets": [
            {
              "refId": "A"
            }
          ],
          "datasource": null,
          "renderer": "flot",
          "yaxes": [
            {
              "label": null,
              "show": true,
              "logBase": 1,
              "min": null,
              "max": null,
              "format": "short"
            },
            {
              "label": null,
              "show": true,
              "logBase": 1,
              "min": null,
              "max": null,
              "format": "short"
            }
          ],
          "xaxis": {
            "show": true,
            "mode": "time",
            "name": null,
            "values": []
          },
          "lines": true,
          "fill": 1,
          "linewidth": 1,
          "points": false,
          "pointradius": 5,
          "bars": false,
          "stack": false,
          "percentage": false,
          "legend": {
            "show": true,
            "values": false,
            "min": false,
            "max": false,
            "current": false,
            "total": false,
            "avg": false
          },
          "nullPointMode": "connected",
          "steppedLine": false,
          "tooltip": {
            "value_type": "individual",
            "shared": true,
            "sort": 0,
            "msResolution": false
          },
          "timeFrom": null,
          "timeShift": null,
          "aliasColors": {},
          "seriesOverrides": [],
          "thresholds": [],
          "links": []
        }
      ],
      "showTitle": false,
      "titleSize": "h6",
      "height": 250,
      "repeat": null,
      "repeatRowId": null,
      "repeatIteration": null,
      "collapse": false
      }
    ],
    "schemaVersion": 6,
    "version": 0
  },
  "overwrite": true
}
